"Title";"DOI";"Reader";"Reader_2";"Journal";"Type_study";"Pre_registration";"Data_Sharing";"OA_publishing";"Code_sharing";"Publication_1year_RCT";"Protocol_sharing";"SAP_sharing";"Other_materials_sharing";"Reporting_guideline";"Guideline_name1";"Guideline_name2";"Preprint";"Authors_contrib";"COI";"ORCID";"Funding_statement"
"Use of standardized brief geriatric evaluation compared with routine care in general practice for preventing functional decline: a pragmatic cluster-randomized trial";"10.1503/cmaj.202887";"Tous";;"CMAJ";1;1;2;1;0;0;1;1;;0;;;0;1;1;0;1
"Effect of Intramyocardial Grafting Collagen Scaffold With Mesenchymal Stromal Cells in Patients With Chronic Ischemic Heart Disease: A Randomized Clinical Trial";"10.1001/jamanetworkopen.2020.16236";"Nico";"Perrine";"JAMA Netw Open";1;1;2;1;0;0;1;0;;1;"CONSORT";;0;1;1;0;1
"Effect of a Community-Based Gender Norms Program on Sexual Violence Perpetration by Adolescent Boys and Young Men: A Cluster Randomized Clinical Trial";"10.1001/jamanetworkopen.2020.28499";"Nico";"Perrine";"JAMA Netw Open";1;1;2;1;0;0;1;1;;1;"CONSORT";;0;1;1;0;1
"Effect of Sodium Benzoate on Cognitive Function Among Patients With Behavioral and Psychological Symptoms of Dementia: Secondary Analysis of a Randomized Clinical Trial";"10.1001/jamanetworkopen.2021.6156";"Nico";"Perrine";"JAMA Netw Open";1;1;2;1;0;0;1;0;;1;"CONSORT";;0;1;1;0;1
"Effect of a School-Based Educational Intervention About the Human Papillomavirus Vaccine on Psychosocial Outcomes Among Adolescents: Analysis of Secondary Outcomes of a Cluster Randomized Trial";"10.1001/jamanetworkopen.2021.29057";"Nico";"Perrine";"JAMA Netw Open";1;1;0;1;0;0;1;0;;1;"CONSORT";;0;1;1;0;1
"Effect of Vasoactive Intestinal Polypeptide on Development of Migraine Headaches: A Randomized Clinical Trial";"10.1001/jamanetworkopen.2021.18543";"Nico";"Perrine";"JAMA Netw Open";1;1;2;1;0;1;1;0;;1;"CONSORT";;0;1;1;0;1
"Effect of Sodium Benzoate vs Placebo Among Individuals With Early Psychosis: A Randomized Clinical Trial";"10.1001/jamanetworkopen.2020.24335";"Nico";"Perrine";"JAMA Netw Open";1;1;2;1;0;0;1;0;;1;"CONSORT";;0;1;1;0;1
"Cost-effectiveness of Cardiac Telerehabilitation With Relapse Prevention for the Treatment of Patients With Coronary Artery Disease in the Netherlands";"10.1001/jamanetworkopen.2021.36652";"Nico";"Perrine";"JAMA Netw Open";1;1;0;1;0;0;1;0;;1;"CHEERS";;0;1;1;0;1
"Effects of Candesartan vs Lisinopril on Neurocognitive Function in Older Adults With Executive Mild Cognitive Impairment: A Randomized Clinical Trial";"10.1001/jamanetworkopen.2020.12252";"Nico";"Perrine";"JAMA Netw Open";1;1;0;1;0;0;1;1;;1;"CONSORT";;0;1;1;0;1
"Effect of Levothyroxine Therapy on the Development of Depressive Symptoms in Older Adults With Subclinical Hypothyroidism: An Ancillary Study of a Randomized Clinical Trial";"10.1001/jamanetworkopen.2020.36645";"Nico";"Perrine";"JAMA Netw Open";1;1;2;1;0;0;1;0;;1;"CONSORT";;0;1;1;0;1
"Effect of Nocturnal Oxygen Therapy on Nocturnal Hypoxemia and Sleep Apnea Among Patients With Chronic Obstructive Pulmonary Disease Traveling to 2048 Meters: A Randomized Clinical Trial";"10.1001/jamanetworkopen.2020.7940";"Nico";"Perrine";"JAMA Netw Open";1;1;1;1;0;0;1;1;;1;"CONSORT";;0;1;1;0;1
"Comparison of a Hemostatic Powder and Standard Treatment in the Control of Active Bleeding From Upper Nonvariceal Lesions : A Multicenter, Noninferiority, Randomized Trial";"10.7326/M21-0975";"Nico";"Perrine";"Ann Intern Med";1;1;2;0;0;0;0;0;;0;;;0;1;1;1;1
"Poxvirus Vectored Cytomegalovirus Vaccine to Prevent Cytomegalovirus Viremia in Transplant Recipients: A Phase 2, Randomized Clinical Trial";"10.7326/M19-2511";"Nico";"Perrine";"Ann Intern Med";1;1;2;0;0;0;0;0;;0;;;0;1;1;0;1
"Cytosponge-trefoil factor 3 versus usual care to identify Barrett's oesophagus in a primary care setting: a multicentre, pragmatic, randomised controlled trial";"10.1016/S0140-6736(20)31099-0";"Nico";"Perrine";"Lancet";1;1;2;1;0;0;1;1;;0;;;0;1;1;0;1
"Final efficacy analysis, interim safety analysis, and immunogenicity of a single dose of recombinant novel coronavirus vaccine (adenovirus type 5 vector) in adults 18 years and older: an international, multicentre, randomised, double-blinded, placebo-controlled phase 3 trial";"10.1016/S0140-6736(21)02753-7";"Nico";"Perrine";"Lancet";1;1;2;1;0;1;1;1;;0;;;0;1;1;0;1
"Effect of Incisional Negative Pressure Wound Therapy vs Standard Wound Dressing on Deep Surgical Site Infection After Surgery for Lower Limb Fractures Associated With Major Trauma: The WHIST Randomized Clinical Trial";"10.1001/jama.2020.0059";"Sarah";"Nico";"JAMA";1;1;0;1;0;0;1;1;;0;;;0;1;1;0;1
"Effect of Multilevel Upper Airway Surgery vs Medical Management on the Apnea-Hypopnea Index and Patient-Reported Daytime Sleepiness Among Patients With Moderate or Severe Obstructive Sleep Apnea: The SAMS Randomized Clinical Trial";"10.1001/jama.2020.14265";"Sarah";"Nico";"JAMA";1;1;0;1;0;0;1;1;;1;"CONSORT";;0;1;1;0;1
"Effect of School Integrated Pest Management or Classroom Air Filter Purifiers on Asthma Symptoms in Students With Active Asthma: A Randomized Clinical Trial";"10.1001/jama.2021.11559";"Sarah";"Nico";"JAMA";1;1;2;1;0;0;1;1;;0;;;0;1;1;0;1
"Effect of High Add Power, Medium Add Power, or Single-Vision Contact Lenses on Myopia Progression in Children";"10.1001/jama.2020.10834";"Sarah";"Nico";"JAMA";1;1;2;1;0;0;1;1;;0;;;0;1;1;0;1
"Effect of an Online Weight Management Program Integrated With Population Health Management on Weight Change: A Randomized Clinical Trial";"10.1001/jama.2020.18977";"Sarah";"Nico";"JAMA";1;1;0;1;0;0;1;1;;0;;;0;1;1;0;1
"Effect of e-Cigarettes Plus Counseling vs Counseling Alone on Smoking Cessation: A Randomized Clinical Trial";"10.1001/jama.2020.18889";"Sarah";"Nico";"JAMA";1;1;2;1;0;1;1;0;;0;;;0;1;1;0;1
"Effect of Amoxicillin Dose and Treatment Duration on the Need for Antibiotic Re-treatment in Children With Community-Acquired Pneumonia: The CAP-IT Randomized Clinical Trial";"10.1001/jama.2021.17843";"Sarah";"Nico";"JAMA";1;1;2;1;0;0;1;1;;0;;;0;1;1;0;1
"Effect of Celecoxib vs Placebo Added to Standard Adjuvant Therapy on Disease-Free Survival Among Patients With Stage III Colon Cancer";"10.1001/jama.2021.2454";"Sarah";"Nico";"JAMA";1;1;2;1;0;1;1;0;;0;;;0;1;1;0;1
"Effect of C-Reactive Protein-Guided Antibiotic Treatment Duration, 7-Day Treatment, or 14-Day Treatment on 30-Day Clinical Failure Rate in Patients With Uncomplicated Gram-Negative Bacteremia: A Randomized Clinical Trial";"10.1001/jama.2020.6348";"Sarah";"Nico";"JAMA";1;1;2;1;0;1;1;1;;0;;;0;1;1;0;1
"Effect of Mechanical Thrombectomy Without vs With Intravenous Thrombolysis on Functional Outcome Among Patients With Acute Ischemic Stroke";"10.1001/jama.2020.23522";"Sarah";"Nico";"JAMA";1;1;2;1;0;0;1;1;;0;;;0;1;1;0;1
"Evaluation of a community-based mobile video breastfeeding intervention in Khayelitsha, South Africa: The Philani MOVIE cluster-randomized controlled trial";"10.1371/journal.pmed.1003744";"Sarah";"Nico";"PLoS Med";1;1;2;1;0;0;1;0;;1;"CONSORT";;0;1;1;1;1
"Impact of assessment and intervention by a health and social care professional team in the emergency department on the quality, safety, and clinical effectiveness of care for older adults: A randomised controlled trial";"10.1371/journal.pmed.1003711";"Sarah";"Nico";"PLoS Med";1;1;1;1;0;0;1;0;;1;"CONSORT";;0;1;1;1;1
"SMS messaging to improve retention and viral suppression in prevention of mother-to-child HIV transmission (PMTCT) programs in Kenya: A 3-arm randomized clinical trial";"10.1371/journal.pmed.1003650";"Sarah";"Nico";"PLoS Med";1;1;1;1;0;0;1;1;;1;"CONSORT";;0;1;1;1;1
"Financial incentives and deposit contracts to promote HIV retesting in Uganda: A randomized trial";"10.1371/journal.pmed.1003630";"Sarah";"Nico";"PLoS Med";1;1;1;1;0;0;1;0;;1;"CONSORT";;0;1;1;1;1
"Insulin dose optimization using an automated artificial intelligence-based decision support system in youths with type 1 diabetes";"10.1038/s41591-020-1045-7";"Perrine";"Sarah";"Nat Med";1;1;2;0;0;0;1;0;"liste biblio";0;;;0;1;1;1;1
"Cervical ripening in prolonged pregnancies by silicone double balloon catheter versus vaginal dinoprostone slow release system: The MAGPOP randomised controlled trial";"10.1371/journal.pmed.1003448";"Sarah";"Nico";"PLoS Med";1;1;2;1;0;0;1;0;;1;"CONSORT";;0;1;1;1;1
"Testing approaches to sharing trial results with participants: The Show RESPECT cluster randomised, factorial, mixed methods trial";"10.1371/journal.pmed.1003798";"Sarah";"Nico";"PLoS Med";1;1;2;1;0;0;1;1;;1;"CONSORT";"COREQ";0;1;1;1;1
"The EmpaTeach intervention for reducing physical violence from teachers to students in Nyarugusu Refugee Camp: A cluster-randomised controlled trial";"10.1371/journal.pmed.1003808";"Sarah";"Nico";"PLoS Med";1;1;2;1;0;0;1;1;;1;"CONSORT";"TIDieR";0;1;1;1;1
"Evaluation of a very brief pedometer-based physical activity intervention delivered in NHS Health Checks in England: The VBI randomised controlled trial";"10.1371/journal.pmed.1003046";"Sarah";"Nico";"PLoS Med";1;1;2;1;0;0;1;1;;1;"CONSORT";;0;1;1;1;1
"A phase 1 trial of lipid-encapsulated mRNA encoding a monoclonal antibody with neutralizing activity against Chikungunya virus";"10.1038/s41591-021-01573-6";"Perrine";"Sarah";"Nat Med";1;0;2;1;0;0;1;0;;0;;;0;1;1;1;1
"Effects of vitamin B12 supplementation on neurodevelopment and growth in Nepalese Infants: A randomized controlled trial";"10.1371/journal.pmed.1003430";"Sarah";"Nico";"PLoS Med";1;1;2;1;0;0;1;1;;1;"CONSORT";;0;1;1;1;1
"A trial of gantenerumab or solanezumab in dominantly inherited Alzheimer's disease";"10.1038/s41591-021-01369-8";"Perrine";"Sarah";"Nat Med";1;1;2;0;2;0;2;2;;0;;;0;1;1;1;1
"Effect of Cannabidiol and Î”9-Tetrahydrocannabinol on Driving Performance: A Randomized Clinical Trial";"10.1001/jama.2020.21218";"Sarah";"Nico";"JAMA";1;1;2;1;0;1;1;1;;0;;;0;1;1;0;1
"Assessment of cognitive and neural recovery in survivors of pediatric brain tumors in a pilot clinical trial using metformin";"10.1038/s41591-020-0985-2";"Perrine";"Sarah";"Nat Med";1;1;0;0;0;0;2;0;;1;"CONSORT";;0;1;1;1;0
"Effect of Intravenous Interferon Î²-1a on Death and Days Free From Mechanical Ventilation Among Patients With Moderate to Severe Acute Respiratory Distress Syndrome: A Randomized Clinical Trial";"10.1001/jama.2019.22525";"Sarah";"Nico";"JAMA";1;1;2;1;0;0;1;1;;0;;;0;1;1;0;1
"Fecal microbial transplantation and fiber supplementation in patients with severe obesity and metabolic syndrome: a randomized double-blind, placebo-controlled phase 2 trial";"10.1038/s41591-021-01399-2";"Perrine";"Sarah";"Nat Med";1;1;1;0;0;0;0;0;;0;;;0;1;1;1;1
"A randomized proof-of-mechanism trial applying the 'fast-fail' approach to evaluating κ-opioid antagonism as a treatment for anhedonia";"10.1038/s41591-020-0806-7";"Perrine";"Sarah";"Nat Med";1;1;2;0;0;0;0;0;"diagramme consort";0;;;0;1;1;1;1
"Safety and immunogenicity of SARS-CoV-2 variant mRNA vaccine boosters in healthy adults: an interim analysis";"10.1038/s41591-021-01527-y";"Perrine";"Sarah";"Nat Med";1;1;1;1;0;0;1;1;;0;;;0;1;1;1;1
"Neoadjuvant immunotherapy leads to pathological responses in MMR-proficient and MMR-deficient early-stage colon cancers";"10.1038/s41591-020-0805-8";"Perrine";"Sarah";"Nat Med";1;1;2;0;0;0;0;0;;0;;;0;1;1;1;1
"Safety and efficacy of anti-tau monoclonal antibody gosuranemab in progressive supranuclear palsy: a phase 2, randomized, placebo-controlled trial";"10.1038/s41591-021-01455-x";"Perrine";"Sarah";"Nat Med";1;1;2;0;0;0;0;0;;0;;;0;1;1;1;0
"Does paracetamol improve quality of life, discomfort, pain and neuropsychiatric symptoms in persons with advanced dementia living in long-term care facilities? A randomised double-blind placebo-controlled crossover (Q-PID) trial";"10.1186/s12916-020-01858-6";"Perrine";"Sarah";"BMC Med";1;1;2;1;0;0;0;0;"liste biblio";0;;;0;1;1;1;1
"Nocturnal dexmedetomidine alleviates post-intensive care syndrome following cardiac surgery: a prospective randomized controlled clinical trial";"10.1186/s12916-021-02175-2";"Perrine";"Sarah";"BMC Med";1;1;2;1;2;0;0;0;;0;;;0;1;1;0;1
"A cluster-randomized field trial to reduce cesarean section rates with a multifaceted intervention in Shanghai, China";"10.1186/s12916-020-1491-6";"Perrine";"Sarah";"BMC Med";1;1;2;1;0;0;1;0;"liste biblio";1;"CONSORT";;0;1;1;1;1
"Effect of collaborative care between traditional and faith healers and primary health-care workers on psychosis outcomes in Nigeria and Ghana (COSIMPO): a cluster randomised controlled trial";"10.1016/S0140-6736(20)30634-6";"Nico";"Perrine";"Lancet";1;1;2;1;0;0;1;0;;1;"CONSORT";;0;1;1;0;1
"Adjuvant nivolumab plus ipilimumab or nivolumab monotherapy versus placebo in patients with resected stage IV melanoma with no evidence of disease (IMMUNED): a randomised, double-blind, placebo-controlled, phase 2 trial";"10.1016/S0140-6736(20)30417-7";"Nico";"Perrine";"Lancet";1;1;0;0;0;0;1;0;;0;;;0;1;1;0;1
"Targeting rehabilitation to improve outcomes after total knee arthroplasty in patients at risk of poor outcomes: randomised controlled trial";"10.1136/bmj.m3576";"Sarah";"Perrine";"BMJ";1;1;2;1;0;1;1;0;;0;;;0;1;1;1;1
"Procalcitonin and lung ultrasonography point-of-care testing to determine antibiotic prescription in patients with lower respiratory tract infection in primary care: pragmatic cluster randomised trial";"10.1136/bmj.n2132";"Sarah";"Perrine";"BMJ";1;1;1;1;0;0;1;0;"Liste biblio";1;"CONSORT";;0;1;1;1;1
"Effect of dietary sources of calcium and protein on hip fractures and falls in older adults in residential care: cluster randomised controlled trial";"10.1136/bmj.n2364";"Sarah";"Perrine";"BMJ";1;1;2;1;0;0;1;1;"Liste biblio";0;;;0;1;1;1;1
"Opportunistic screening versus usual care for detection of atrial fibrillation in primary care: cluster randomised controlled trial";"10.1136/bmj.m3208";"Sarah";"Perrine";"BMJ";1;1;2;1;0;0;1;0;;0;;;0;1;1;1;1
"Manual acupuncture versus sham acupuncture and usual care for prophylaxis of episodic migraine without aura: multicentre, randomised clinical trial";"10.1136/bmj.m697";"Sarah";"Perrine";"BMJ";1;1;2;1;0;0;1;1;;0;;;0;1;1;0;1
"Continued versus discontinued oxytocin stimulation in the active phase of labour (CONDISOX): double blind randomised controlled trial";"10.1136/bmj.n716";"Sarah";"Perrine";"BMJ";1;1;0;1;0;1;1;0;;0;;;0;1;1;1;1
"Incentive programmes for smoking cessation: cluster randomized trial in workplaces in Thailand";"10.1136/bmj.m3797";"Sarah";"Perrine";"BMJ";1;1;1;1;1;0;1;0;;0;;;0;1;1;1;1
"Effect of therapeutic suggestions during general anaesthesia on postoperative pain and opioid use: multicentre randomised controlled trial";"10.1136/bmj.m4284";"Sarah";"Perrine";"BMJ";1;1;2;1;0;0;1;1;;1;"CONSORT";;0;1;1;0;1
"Post-discharge after surgery Virtual Care with Remote Automated Monitoring-1 (PVC-RAM-1) technology versus standard care: randomised controlled trial";"10.1136/bmj.n2209";"Sarah";"Perrine";"BMJ";1;1;2;1;0;0;1;0;;0;;;0;1;1;0;1
"Use of cast immobilisation versus removable brace in adults with an ankle fracture: multicentre randomised controlled trial";"10.1136/bmj.n1506";"Sarah";"Perrine";"BMJ";1;1;2;1;0;0;1;0;;0;;;0;1;1;1;1
"Aspirin versus clopidogrel for chronic maintenance monotherapy after percutaneous coronary intervention (HOST-EXAM): an investigator-initiated, prospective, randomised, open-label, multicentre trial";"10.1016/S0140-6736(21)01063-1";"Nico";"Sarah";"Lancet";1;1;0;1;0;0;1;0;"liste biblio";0;;;0;1;1;0;1
"Initial treatment with a single pill containing quadruple combination of quarter doses of blood pressure medicines versus standard dose monotherapy in patients with hypertension (QUARTET): a phase 3, randomised, double-blind, active-controlled trial";"10.1016/S0140-6736(21)01922-X";"Nico";"Sarah";"Lancet";1;1;0;0;0;0;1;0;"liste biblio";0;;;0;1;1;0;1
"Lopinavir-ritonavir in patients admitted to hospital with COVID-19 (RECOVERY): a randomised, controlled, open-label, platform trial";"10.1016/S0140-6736(20)32013-4";"Nico";"Sarah";"Lancet";1;1;2;1;0;1;1;1;"liste biblio";0;;;0;1;1;0;1
"Efficacy and safety of a novel dual GIP and GLP-1 receptor agonist tirzepatide in patients with type 2 diabetes (SURPASS-1): a double-blind, randomised, phase 3 trial";"10.1016/S0140-6736(21)01324-6";"Nico";"Sarah";"Lancet";1;1;2;0;0;1;0;0;"liste biblio";0;;;0;1;1;0;1
"Efficacy of catheter-based renal denervation in the absence of antihypertensive medications (SPYRAL HTN-OFF MED Pivotal): a multicentre, randomised, sham-controlled trial";"10.1016/S0140-6736(20)30554-7";"Nico";"Sarah";"Lancet";1;1;0;0;0;1;0;0;"liste biblio";0;;;0;1;1;0;1
"Ixekizumab for patients with non-radiographic axial spondyloarthritis (COAST-X): a randomised, placebo-controlled trial";"10.1016/S0140-6736(19)32971-X";"Nico";"Sarah";"Lancet";1;1;2;0;0;0;0;0;"liste biblio";0;;;0;1;1;0;1
"Once-daily upadacitinib versus placebo in adolescents and adults with moderate-to-severe atopic dermatitis (Measure Up 1 and Measure Up 2): results from two replicate double-blind, randomised controlled phase 3 trials";"10.1016/S0140-6736(21)00588-2";"Nico";"Sarah";"Lancet";1;1;2;0;0;0;1;0;"liste biblio";0;;;0;1;1;0;1
"Efficacy and safety of dolutegravir with emtricitabine and tenofovir alafenamide fumarate or tenofovir disoproxil fumarate, and efavirenz, emtricitabine, and tenofovir disoproxil fumarate HIV antiretroviral therapy regimens started in pregnancy (IMPAACT 2010/VESTED): a multicentre, open-label, randomised, controlled, phase 3 trial";"10.1016/S0140-6736(21)00314-7";"Nico";"Sarah";"Lancet";1;1;0;0;0;0;0;0;"liste biblio";0;;;0;1;1;0;1
"Effect of Bedside Compared With Outside the Room Patient Case Presentation on Patients' Knowledge About Their Medical Care : A Randomized, Controlled, Multicenter Trial";"10.7326/M21-0909";"Nico";"Sarah";"Ann Intern Med";1;1;2;0;2;0;1;0;;0;;;0;1;1;1;1
"Effectiveness of Curcuma longa Extract for the Treatment of Symptoms and Effusion-Synovitis of Knee Osteoarthritis : A Randomized Trial";"10.7326/M20-0990";"Nico";"Sarah";"Ann Intern Med";1;1;0;0;0;0;0;0;;0;;;0;1;1;1;1
"A Primary Care-Based Cognitive Behavioral Therapy Intervention for Long-Term Opioid Users With Chronic Pain : A Randomized Pragmatic Trial";"10.7326/M21-1436";"Nico";"Sarah";"Ann Intern Med";1;1;1;0;0;0;1;0;;0;;;0;1;1;1;1
"Effectiveness of Adding a Mask Recommendation to Other Public Health Measures to Prevent SARS-CoV-2 Infection in Danish Mask Wearers : A Randomized Controlled Trial";"10.7326/M20-6817";"Nico";"Sarah";"Ann Intern Med";1;1;0;1;0;1;1;0;;0;;;0;1;1;1;1
"Adverse Effects of Low-Dose Methotrexate: A Randomized Trial";"10.7326/M19-3369";"Nico";"Sarah";"Ann Intern Med";1;1;0;0;0;0;0;0;;0;;;0;1;1;0;1
"Long-Term Follow-up of the Italian Flexible Sigmoidoscopy Screening Trial";"10.7326/M21-0977";"Nico";"Sarah";"Ann Intern Med";1;1;0;0;0;0;0;0;;0;;;0;1;1;1;1
"Effectiveness of Belimumab After Rituximab in Systemic Lupus Erythematosus : A Randomized Controlled Trial";"10.7326/M21-2078";"Nico";"Sarah";"Ann Intern Med";1;1;2;0;0;0;0;0;;0;;;0;1;1;1;1
"Reducing expectations for antibiotics in primary care: a randomised experiment to test the response to fear-based messages about antimicrobial resistance";"10.1186/s12916-020-01553-6";"Perrine";"Sarah";"BMC Med";1;0;2;1;0;0;0;0;"liste biblio";0;;;0;1;1;0;1
"Clinical outcomes in patients with atrial fibrillation and frailty: insights from the ENGAGE AF-TIMI 48 trial";"10.1186/s12916-020-01870-w";"Perrine";"Sarah";"BMC Med";1;1;2;1;0;0;0;0;"liste biblio";0;;;0;1;1;1;1
"Hypophosphatemia after high-dose iron repletion with ferric carboxymaltose and ferric derisomaltose-the randomized controlled HOMe aFers study";"10.1186/s12916-020-01643-5";"Perrine";"Sarah";"BMC Med";1;1;2;1;0;0;0;0;"liste biblio";;;;0;1;1;1;1
"Youth Depression Alleviation with Anti-inflammatory Agents (YoDA-A): a randomised clinical trial of rosuvastatin and aspirin";"10.1186/s12916-019-1475-6";"Perrine";"Sarah";"BMC Med";1;1;2;1;0;0;1;0;"liste biblio";1;"CONSORT";;0;1;1;0;1
"Comparison of submucosal and subserosal approaches toward optimized indocyanine green tracer-guided laparoscopic lymphadenectomy for patients with gastric cancer (FUGES-019): a randomized controlled trial";"10.1186/s12916-021-02125-y";"Perrine";"Sarah";"BMC Med";1;1;2;1;0;1;1;0;"liste biblio";1;"STROCSS";;0;1;1;1;1
"Malaria Chemoprevention in the Postdischarge Management of Severe Anemia";"10.1056/NEJMoa2002820";"Perrine";"Sarah";"N Engl J Med";1;1;2;1;0;0;1;1;"liste biblio";0;;;0;1;1;0;1
"Efficacy and Safety of Itepekimab in Patients with Moderate-to-Severe Asthma";"10.1056/NEJMoa2024257";"Perrine";"Sarah";"N Engl J Med";1;1;2;1;0;0;1;1;;0;;;0;0;1;0;1
"Atogepant for the Preventive Treatment of Migraine";"10.1056/NEJMoa2035908";"Perrine";"Sarah";"N Engl J Med";1;1;2;1;0;0;1;1;;0;;;0;0;1;0;1
"Hand hygiene intervention to optimise soil-transmitted helminth infection control among primary school children: the Mikono Safi cluster randomised controlled trial in northwestern Tanzania";"10.1186/s12916-021-01987-6";"Perrine";"Sarah";"BMC Med";1;1;1;1;0;0;0;0;;0;;;0;1;1;1;1
"A Non-D2-Receptor-Binding Drug for the Treatment of Schizophrenia";"10.1056/NEJMoa1911772";"Perrine";"Sarah";"N Engl J Med";1;1;2;1;0;0;1;1;;0;;;0;0;1;0;1
"Cardiovascular Events with Finerenone in Kidney Disease and Type 2 Diabetes";"10.1056/NEJMoa2110956";"Perrine";"Sarah";"N Engl J Med";1;1;1;1;0;0;1;1;;0;;;0;0;1;0;1
"Teprotumumab for the Treatment of Active Thyroid Eye Disease";"10.1056/NEJMoa1910434";"Perrine";"Sarah";"N Engl J Med";1;1;2;1;0;0;1;1;;0;;;0;0;1;0;1
"Intranasal Oxytocin in Children and Adolescents with Autism Spectrum Disorder";"10.1056/NEJMoa2103583";"Perrine";"Sarah";"N Engl J Med";1;1;2;1;0;0;1;1;;0;;;0;0;1;0;1
"Six-Year Follow-up of a Trial of Antenatal Vitamin D for Asthma Reduction";"10.1056/NEJMoa1906137";"Perrine";"Sarah";"N Engl J Med";1;1;1;1;0;0;1;0;;0;;;0;0;1;0;1
"Angiotensin Receptor-Neprilysin Inhibition in Acute Myocardial Infarction";"10.1056/NEJMoa2104508";"Perrine";"Sarah";"N Engl J Med";1;1;0;1;0;1;1;1;;0;;;0;0;1;0;1
"Seasonal Malaria Vaccination with or without Seasonal Malaria Chemoprevention";"10.1056/NEJMoa2026330";"Perrine";"Sarah";"N Engl J Med";1;1;2;1;0;0;1;1;;0;;;0;0;1;0;1
"Adjuvant Pembrolizumab after Nephrectomy in Renal-Cell Carcinoma";"10.1056/NEJMoa2106391";"Perrine";"Sarah";"N Engl J Med";1;1;2;1;0;0;1;1;;0;;;0;0;1;0;1
"Randomized Trial of Focused Ultrasound Subthalamotomy for Parkinson's Disease";"10.1056/NEJMoa2016311";"Perrine";"Sarah";"N Engl J Med";1;1;2;1;0;0;1;1;;0;;;0;0;1;0;1
"Conservative Oxygen Therapy during Mechanical Ventilation in the ICU";"10.1056/NEJMoa1903297";"Perrine";"Sarah";"N Engl J Med";1;1;2;1;0;0;1;1;;0;;;0;0;1;0;1
"Midodrine for the Prevention of Vasovagal Syncope : A Randomized Clinical Trial";"10.7326/M20-5415";"Nico";"Sarah";"Ann Intern Med";1;1;2;0;0;0;0;0;;0;;;0;1;1;1;1
"Aramchol in patients with nonalcoholic steatohepatitis: a randomized, double-blind, placebo-controlled phase 2b trial";"10.1038/s41591-021-01495-3";"Nico";"Sarah";"Nat Med";1;1;2;0;0;0;0;0;;0;;;0;1;1;1;1
"Dexmedetomidine for reduction of atrial fibrillation and delirium after cardiac surgery (DECADE): a randomised placebo-controlled trial";"10.1016/S0140-6736(20)30631-0";"Nico";"Sarah";"Lancet";1;1;0;0;0;0;0;0;"liste bilbio";0;;;0;1;1;0;1
"Antenatal Dexamethasone for Early Preterm Birth in Low-Resource Countries";"10.1056/NEJMoa2022398";"Nico";"Sarah";"N Engl J Med";1;1;2;1;0;0;1;0;;0;;;0;0;1;0;1
"Predicting the risk of mortality during hospitalization in sick severely malnourished children using daily evaluation of key clinical warning signs";"10.1186/s12916-021-02074-6";"Perrine";"Sarah";"BMC Med";1;1;2;1;2;0;0;0;;0;;;0;1;1;1;1
"Comparative functional survival and equivalent annual cost of 3 long-lasting insecticidal net (LLIN) products in Tanzania: A randomised trial with 3-year follow up";"10.1371/journal.pmed.1003248";"Maud";"Francois-Joseph";"PLoS Med";1;1;2;1;0;0;1;0;;1;"STROBE";;0;1;1;1;1
"Genomewide Association Study of Severe Covid-19 with Respiratory Failure";"10.1056/NEJMoa2020283";"Tous";;"N Engl J Med";2;0;0;1;0;;0;0;;0;;;0;1;1;0;1
"Incidence and Outcomes Associated With Clostridium difficile Infections: A Systematic Review and Meta-analysis";"10.1001/jamanetworkopen.2019.17597";"Nico";"Perrine";"JAMA Netw Open";2;0;0;1;0;;0;0;"Stratégie de recherche";1;"PRISMA";"MOOSE";0;1;1;0;1
"Demographic and Psychosocial Factors Associated With Child Sexual Exploitation: A Systematic Review and Meta-analysis";"10.1001/jamanetworkopen.2020.17682";"Nico";"Perrine";"JAMA Netw Open";2;1;0;1;0;;1;0;"Liste bibliographique, stratégie de recherche";1;"PRISMA";"MOOSE";0;1;1;0;0
"Addition of Financial Incentives to Mailed Outreach for Promoting Colorectal Cancer Screening: A Systematic Review and Meta-analysis";"10.1001/jamanetworkopen.2021.22581";"Nico";"Perrine";"JAMA Netw Open";2;0;0;1;0;;0;0;"liste biblio";1;"PRISMA";;0;1;1;0;1
"Assessment of Diagnostic Yield of Cystoscopy and Computed Tomographic Urography for Urinary Tract Cancers in Patients Evaluated for Microhematuria: A Systematic Review and Meta-analysis";"10.1001/jamanetworkopen.2021.8409";"Nico";"Perrine";"JAMA Netw Open";2;1;0;1;0;;1;0;"liste biblio";1;"PRISMA";;0;1;1;0;0
"Comparison of Hepatotoxicity Associated With New BCR-ABL Tyrosine Kinase Inhibitors vs Imatinib Among Patients With Chronic Myeloid Leukemia: A Systematic Review and Meta-analysis";"10.1001/jamanetworkopen.2021.20165";"Nico";"Perrine";"JAMA Netw Open";2;0;0;1;0;;1;0;"Stratégie de recherche";1;"PRISMA";;0;1;1;0;1
"Risk of Depression in the Adolescent and Adult Offspring of Mothers With Perinatal Depression: A Systematic Review and Meta-analysis";"10.1001/jamanetworkopen.2020.8783";"Nico";"Perrine";"JAMA Netw Open";2;0;0;1;0;;0;0;"Stratégie de recherche";1;"MOOSE";;0;1;1;0;1
"Brain Responses to Noxious Stimuli in Patients With Chronic Pain: A Systematic Review and Meta-analysis";"10.1001/jamanetworkopen.2020.32236";"Nico";"Perrine";"JAMA Netw Open";2;1;1;1;1;;1;0;;1;"PRISMA";;0;1;1;0;1
"Comparison of Clinical Outcomes of Robot-Assisted, Video-Assisted, and Open Esophagectomy for Esophageal Cancer: A Systematic Review and Meta-analysis";"10.1001/jamanetworkopen.2021.29228";"Nico";"Perrine";"JAMA Netw Open";2;1;0;1;0;;1;0;"Stratégie de recherche, liste bibliographique";1;"PRISMA";;0;1;1;0;1
"Ocular Point-of-Care Ultrasonography to Diagnose Posterior Chamber Abnormalities: A Systematic Review and Meta-analysis";"10.1001/jamanetworkopen.2019.21460";"Nico";"Perrine";"JAMA Netw Open";2;1;0;1;0;;1;0;"Stratégie de recherche";1;"PRISMA";;0;1;1;0;0
"Temporal Associations Among Body Mass Index, Fasting Insulin, and Systemic Inflammation: A Systematic Review and Meta-analysis";"10.1001/jamanetworkopen.2021.1263";"Nico";"Perrine";"JAMA Netw Open";2;0;0;1;0;;0;0;"Stratégie de recherche, liste bibliographique";1;"PRISMA";"MOOSE";0;1;1;0;0
"Association of Mindfulness-Based Interventions With Anxiety Severity in Adults With Cancer: A Systematic Review and Meta-analysis";"10.1001/jamanetworkopen.2020.12598";"Nico";"Perrine";"JAMA Netw Open";2;0;0;1;0;;0;0;"Stratégie de recherche";1;"PRISMA";;0;1;1;0;1
"Evaluation of THC-Related Neuropsychiatric Symptoms Among Adults Aged 50 Years and Older: A Systematic Review and Metaregression Analysis";"10.1001/jamanetworkopen.2020.35913";"Nico";"Perrine";"JAMA Netw Open";2;0;0;1;0;;0;0;"Stratégie de recherche, liste bibliographique";1;"PRISMA";;0;1;1;0;0
"Comparison of Allogeneic Stem Cell Transplant and Autologous Stem Cell Transplant in Refractory or Relapsed Peripheral T-Cell Lymphoma: A Systematic Review and Meta-analysis";"10.1001/jamanetworkopen.2021.9807";"Nico";"Perrine";"JAMA Netw Open";2;1;0;1;0;;1;0;;1;"PRISMA";;0;1;1;0;1
"The risk of tuberculosis in children after close exposure: a systematic review and individual-participant meta-analysis";"10.1016/S0140-6736(20)30166-5";"Nico";"Perrine";"Lancet";2;1;2;1;2;;1;0;"Stratégie de recherche, liste bibliographique";1;"PRISMA-IPD";;0;1;1;0;1
"Association of metabolic-bariatric surgery with long-term survival in adults with and without diabetes: a one-stage meta-analysis of matched cohort and prospective controlled studies with 174 772 participants";"10.1016/S0140-6736(21)00591-2";"Nico";"Perrine";"Lancet";2;1;0;0;0;;1;0;"liste biblio";1;"PRISMA ";"MOOSE";0;1;1;0;1
"Hearing loss prevalence and years lived with disability, 1990-2019: findings from the Global Burden of Disease Study 2019";"10.1016/S0140-6736(21)00516-X";"Nico";"Perrine";"Lancet";2;0;1;1;0;;0;0;"liste biblio";1;"GATHER";;0;1;1;0;1
"Parental education and inequalities in child mortality: a global systematic review and meta-analysis";"10.1016/S0140-6736(21)00534-1";"Nico";"Sarah";"Lancet";2;1;2;1;0;;1;0;"liste biblio";1;"PRISMA";;0;1;1;0;1
"Intravenous alteplase for stroke with unknown time of onset guided by advanced imaging: systematic review and meta-analysis of individual patient data";"10.1016/S0140-6736(20)32163-2";"Nico";"Sarah";"Lancet";2;1;2;1;0;;1;0;"liste biblio";1;"PRISMA";;0;1;1;0;1
"The Community-Level Interventions for Pre-eclampsia (CLIP) cluster randomised trials in Mozambique, Pakistan, and India: an individual participant-level meta-analysis";"10.1016/S0140-6736(20)31128-4";"Nico";"Sarah";"Lancet";2;1;2;1;0;;1;1;"liste biblio";1;"PRISMA";"CONSORT";0;1;1;0;1
"Efficacy and safety of lowering LDL cholesterol in older patients: a systematic review and meta-analysis of randomised controlled trials";"10.1016/S0140-6736(20)32332-1";"Nico";"Sarah";"Lancet";2;0;0;0;0;;0;0;"liste biblio";1;"PRISMA";;0;1;1;0;1
"Delayed versus early initiation of renal replacement therapy for severe acute kidney injury: a systematic review and individual patient data meta-analysis of randomised clinical trials";"10.1016/S0140-6736(20)30531-6";"Nico";"Sarah";"Lancet";2;1;0;1;0;;1;0;"liste biblio";1;"PRISMA";;0;1;1;0;1
"Evaluating Progestogens for Preventing Preterm birth International Collaborative (EPPPIC): meta-analysis of individual participant data from randomised controlled trials";"10.1016/S0140-6736(21)00217-8";"Nico";"Sarah";"Lancet";2;1;2;0;0;;1;0;"liste biblio";1;"PRISMA-IPD";;1;1;1;0;1
"Single-dose administration and the influence of the timing of the booster dose on immunogenicity and efficacy of ChAdOx1 nCoV-19 (AZD1222) vaccine: a pooled analysis of four randomised trials";"10.1016/S0140-6736(21)00432-3";"Nico";"Sarah";"Lancet";2;0;2;1;0;;0;0;"liste biblio";0;;;0;1;1;0;1
"Percutaneous coronary intervention with drug-eluting stents versus coronary artery bypass grafting in left main coronary artery disease: an individual patient data meta-analysis";"10.1016/S0140-6736(21)02334-5";"Nico";"Sarah";"Lancet";2;0;0;0;0;;0;0;"liste biblio";1;;;0;1;1;0;1
"The cardiovascular effects of amodiaquine and structurally related antimalarials: An individual patient data meta-analysis";"10.1371/journal.pmed.1003766";"Sarah";"Nico";"PLoS Med";2;0;2;1;0;;0;0;;1;"PRISMA-IPD";;0;1;1;1;1
"Association of suicidal behavior with exposure to suicide and suicide attempt: A systematic review and multilevel meta-analysis";"10.1371/journal.pmed.1003074";"Sarah";"Nico";"PLoS Med";2;1;1;1;0;;1;0;;1;"PRISMA ";"MOOSE";0;1;1;1;1
"Impact of macronutrient supplements on later growth of children born preterm or small for gestational age: A systematic review and meta-analysis of randomised and quasirandomised controlled trials";"10.1371/journal.pmed.1003122";"Sarah";"Nico";"PLoS Med";2;1;1;1;0;;1;0;;1;"PRISMA";;0;1;1;1;1
"The risk of Plasmodium vivax parasitaemia after P. falciparum malaria: An individual patient data meta-analysis from the WorldWide Antimalarial Resistance Network";"10.1371/journal.pmed.1003393";"Sarah";"Nico";"PLoS Med";2;1;2;1;0;;1;0;;1;"PRISMA-IPD";;0;1;1;1;1
"Risk factors during first 1,000 days of life for carotid intima-media thickness in infants, children, and adolescents: A systematic review with meta-analyses";"10.1371/journal.pmed.1003414";"Sarah";"Nico";"PLoS Med";2;1;1;1;0;;1;0;;1;"PRISMA";"MOOSE";0;1;1;1;1
"Painful gynecologic and obstetric complications of female genital mutilation/cutting: A systematic review and meta-analysis";"10.1371/journal.pmed.1003088";"Sarah";"Nico";"PLoS Med";2;1;1;1;0;;1;0;;1;"PRISMA";;0;1;1;1;1
"Global burden of influenza-associated lower respiratory tract infections and hospitalizations among adults: A systematic review and meta-analysis";"10.1371/journal.pmed.1003550";"Sarah";"Nico";"PLoS Med";2;0;1;1;0;;0;0;;1;"PRISMA";;0;1;1;1;1
"Changes in parental smoking during pregnancy and risks of adverse birth outcomes and childhood overweight in Europe and North America: An individual participant data meta-analysis of 229,000 singleton births";"10.1371/journal.pmed.1003182";"Sarah";"Nico";"PLoS Med";2;0;2;1;0;;0;0;;1;"PRISMA";;0;1;1;1;1
"Metabolic risk factors and incident advanced liver disease in non-alcoholic fatty liver disease (NAFLD): A systematic review and meta-analysis of population-based observational studies";"10.1371/journal.pmed.1003100";"Sarah";"Nico";"PLoS Med";2;1;0;1;0;;1;0;;1;"PRISMA";;0;1;1;1;1
"Factors affecting the electrocardiographic QT interval in malaria: A systematic review and meta-analysis of individual patient data";"10.1371/journal.pmed.1003040";"Sarah";"Nico";"PLoS Med";2;0;2;1;0;;0;0;;1;"PRISMA-IPD";;0;1;1;1;1
"Association of Blood Pressure Lowering With Incident Dementia or Cognitive Impairment: A Systematic Review and Meta-analysis";"10.1001/jama.2020.4249";"Sarah";"Nico";"JAMA";2;1;0;1;0;;0;0;;1;"PRISMA";;0;1;1;0;1
"Association of Receipt of Palliative Care Interventions With Health Care Use, Quality of Life, and Symptom Burden Among Adults With Chronic Noncancer Illness: A Systematic Review and Meta-analysis";"10.1001/jama.2020.14205";"Sarah";"Nico";"JAMA";2;1;0;1;0;;1;0;"liste biblio";0;;;0;1;1;0;1
"Primary Care-Relevant Interventions for Tobacco and Nicotine Use Prevention and Cessation in Children and Adolescents: Updated Evidence Report and Systematic Review for the US Preventive Services Task Force";"10.1001/jama.2020.3332";"Sarah";"Nico";"JAMA";2;0;0;1;0;;0;0;"liste biblio";0;;;0;1;1;0;1
"Screening and Interventions to Prevent Dental Caries in Children Younger Than 5 Years: Updated Evidence Report and Systematic Review for the US Preventive Services Task Force";"10.1001/jama.2021.15658";"Sarah";"Nico";"JAMA";2;0;0;1;0;;0;0;"liste biblio";0;;;0;1;1;0;1
"Triple vs Dual Inhaler Therapy and Asthma Outcomes in Moderate to Severe Asthma: A Systematic Review and Meta-analysis";"10.1001/jama.2021.7872";"Sarah";"Nico";"JAMA";2;1;0;1;0;;0;0;"liste biblio";1;"PRISMA";;0;1;1;0;1
"Screening for Hearing Loss in Older Adults: Updated Evidence Report and Systematic Review for the US Preventive Services Task Force";"10.1001/jama.2020.24855";"Sarah";"Nico";"JAMA ";2;0;0;1;0;;0;0;"liste biblio";0;;;0;1;1;0;1
"Association of Convalescent Plasma Treatment With Clinical Outcomes in Patients With COVID-19: A Systematic Review and Meta-analysis";"10.1001/jama.2021.2747";"Sarah";"Nico";"JAMA";2;0;0;1;0;;1;0;"liste biblio";1;"PRISMA";;0;1;1;0;1
"Association of Radial Artery Graft vs Saphenous Vein Graft With Long-term Cardiovascular Outcomes Among Patients Undergoing Coronary Artery Bypass Grafting: A Systematic Review and Meta-analysis";"10.1001/jama.2020.8228";"Sarah";"Nico";"JAMA";2;0;2;1;0;;0;0;"liste biblio";1;"PRISMA";;0;1;1;0;1
"Interventions to Prevent Illicit and Nonmedical Drug Use in Children, Adolescents, and Young Adults: Updated Evidence Report and Systematic Review for the US Preventive Services Task Force";"10.1001/jama.2020.1432";"Sarah";"Nico";"JAMA";2;0;0;1;0;;0;0;"liste biblio";0;;;0;1;1;0;1
"Screening for Prediabetes and Type 2 Diabetes: Updated Evidence Report and Systematic Review for the US Preventive Services Task Force";"10.1001/jama.2021.10403";"Sarah";"Nico";"JAMA";2;0;0;1;0;;0;0;"liste biblio";0;;;0;1;1;0;1
"Interventions for treatment of COVID-19: A living systematic review with meta-analyses and trial sequential analyses (The LIVING Project)";"10.1371/journal.pmed.1003293";"Sarah";"Nico";"PLoS Med";2;1;2;1;0;;1;0;"Liste biblio ";1;"PRISMA";;0;1;1;1;1
"Effects of community-based antiretroviral therapy initiation models on HIV treatment outcomes: A systematic review and meta-analysis";"10.1371/journal.pmed.1003646";"Sarah";"Nico";"PLoS Med";2;1;0;1;0;;1;0;"Liste biblio ";1;"PRISMA";;0;1;1;1;1
"Intake of dietary fats andÂ fatty acids and the incidence of type 2 diabetes: AÂ systematic review and dose-response meta-analysis of prospective observational studies";"10.1371/journal.pmed.1003347";"Sarah";"Nico";"PLoS Med";2;1;0;1;0;;1;0;"Liste biblio ";1;"PRISMA";;0;1;1;1;1
"Development and validation of a risk prediction model of preterm birth for women with preterm labour symptoms (the QUIDS study): A prospective cohort study and individual participant data meta-analysis";"10.1371/journal.pmed.1003686";"Sarah";"Nico";"PLoS Med";2;1;1;1;0;;1;0;"Liste biblio ";1;"TRIPOD";;0;1;1;1;1
"Hepatitis B virus seroepidemiology data for Africa: Modelling intervention strategies based on a systematic review and meta-analysis";"10.1371/journal.pmed.1003068";"Sarah";"Nico";"PLoS Med";2;0;1;1;1;;0;0;"Liste biblio ";1;"PRISMA";;0;1;1;1;1
"Egg consumption and risk of cardiovascular disease: three large prospective US cohort studies, systematic review, and updated meta-analysis";"10.1136/bmj.m513";"Sarah";"Perrine";"BMJ";2;1;0;1;0;;1;0;;1;"PRISMA";;0;1;1;1;1
"Dual Versus Triple Therapy for Atrial Fibrillation After Percutaneous Coronary Intervention: A Systematic Review and Meta-analysis";"10.7326/M19-3763";"Nico";"Sarah";"Ann Intern Med";2;1;2;1;2;;1;0;;1;"PRISMA";;0;1;1;0;1
"The Sensitivity and Costs of Testing for SARS-CoV-2 Infection With Saliva Versus Nasopharyngeal Swabs : A Systematic Review and Meta-analysis";"10.7326/M20-6569";"Nico";"Sarah";"Ann Intern Med";2;1;1;1;1;;1;0;"liste biblio";1;"PRISMA";"MOOSE";0;1;1;1;1
"Pharmacologic Therapies in Patients With Exacerbation of Chronic Obstructive Pulmonary Disease: A Systematic Review With Meta-analysis";"10.7326/M19-3007";"Nico";"Sarah";"Ann Intern Med";2;1;2;1;2;;1;0;"liste biblio";0;;;0;1;1;0;1
"Predictors of Prolonged Opioid Use After Initial Prescription for Acute Musculoskeletal Injuries in Adults : A Systematic Review and Meta-analysis of Observational Studies";"10.7326/M19-3600";"Nico";"Sarah";"Ann Intern Med";2;1;0;0;2;;1;0;;0;;;0;1;1;1;1
"Performance of the European Society of Cardiology 0/1-Hour, 0/2-Hour, and 0/3-Hour Algorithms for Rapid Triage of Acute Myocardial Infarction : An International Collaborative Meta-analysis";"10.7326/M21-1499";"Nico";"Sarah";"Ann Intern Med";2;0;2;0;2;;1;0;;0;;;0;1;1;1;1
"Long-Term Risk for Major Bleeding During Extended Oral Anticoagulant Therapy for First Unprovoked Venous Thromboembolism : A Systematic Review and Meta-analysis";"10.7326/M21-1094";"Nico";"Sarah";"Ann Intern Med";2;1;1;0;0;;1;0;;0;;;0;1;1;1;1
"Safety and Efficiency of Diagnostic Strategies for Ruling Out Pulmonary Embolism in Clinically Relevant Patient Subgroups : A Systematic Review and Individual-Patient Data Meta-analysis";"10.7326/M21-2625";"Nico";"Sarah";"Ann Intern Med";2;1;0;0;0;;1;0;;0;;;0;1;1;1;1
"Dietary intake and biomarkers of alpha linolenic acid and risk of all cause, cardiovascular, and cancer mortality: systematic review and dose-response meta-analysis of cohort studies";"10.1136/bmj.n2213";"Sarah";"Perrine";"BMJ";2;1;0;1;0;;1;0;"Stratégie de recherche, liste bibliographique";1;"PRISMA";;0;1;1;1;1
"Associations between statins and adverse events in primary prevention of cardiovascular disease: systematic review with pairwise, network, and dose-response meta-analyses";"10.1136/bmj.n1537";"Sarah";"Perrine";"BMJ";2;1;2;1;0;;1;0;"Stratégie de recherche, liste bibliographique";1;"PRISMA ";;0;1;1;1;1
"Association between antihypertensive treatment and adverse events: systematic review and meta-analysis";"10.1136/bmj.n189";"Sarah";"Perrine";"BMJ";2;1;2;1;0;;1;0;"Stratégie de recherche";1;"PRISMA";;0;1;1;1;1
"Evaluation of pathological complete response as surrogate endpoint in neoadjuvant randomised clinical trials of early stage breast cancer: systematic review and meta-analysis";"10.1136/bmj-2021-066381";"Sarah";"Perrine";"BMJ";2;0;2;1;0;;0;0;;1;"PRISMA";"ReSEEM";0;1;1;1;1
"Industry funding of patient and health consumer organisations: systematic review with meta-analysis";"10.1136/bmj.l6925";"Sarah";"Perrine";"BMJ";2;1;1;1;1;;1;0;"Stratégie de recherche";1;"PRISMA";;0;1;1;0;1
"Delayed antibiotic prescribing for respiratory tract infections: individual patient data meta-analysis";"10.1136/bmj.n808";"Sarah";"Perrine";"BMJ";2;1;2;1;0;;1;0;;1;"PRISMA-IPD";;0;1;1;1;1
"Evaluating agreement between bodies of evidence from randomised controlled trials and cohort studies in nutrition research: meta-epidemiological study";"10.1136/bmj.n1864";"Sarah";"Perrine";"BMJ";2;0;1;1;0;;0;0;;1;;;0;1;1;1;1
"Prognosis of unrecognised myocardial infarction determined by electrocardiography or cardiac magnetic resonance imaging: systematic review and meta-analysis";"10.1136/bmj.m1184";"Sarah";"Perrine";"BMJ";2;0;2;1;0;;0;0;;1;"MOOSE";;0;1;1;0;1
"Comparison of risk factor associations in UK Biobank against representative, general population based studies with conventional response rates: prospective cohort study and individual participant meta-analysis";"10.1136/bmj.m131";"Sarah";"Perrine";"BMJ";2;0;2;1;0;;0;0;;0;;;1;1;1;1;1
"Comparative effectiveness of biological medicines in rheumatoid arthritis: systematic review and network meta-analysis including aggregate results from reanalysed individual patient data";"10.1136/bmj.m2288";"Sarah";"Perrine";"BMJ";2;0;1;1;1;;1;0;;1;"PRISMA";;0;1;1;0;1
"The impact of COVID-19 on pregnancy outcomes: a systematic review and meta-analysis";"10.1503/cmaj.202604";"Nico";"Sarah";"CMAJ";2;0;1;1;0;;0;0;"liste biblio";1;"PRISMA";;0;1;1;0;1
"Managing postoperative pain in adult outpatients: a systematic review and meta-analysis comparing codeine with NSAIDs";"10.1503/cmaj.201915";"Nico";"Sarah";"CMAJ";2;0;0;1;0;;0;0;"Liste liblio, stratégie de recherche";1;"PRISMA";;0;1;1;0;0
"Efficacy and safety of antiviral treatment for COVID-19 from evidence in studies of SARS-CoV-2 and other acute viral infections: a systematic review and meta-analysis";"10.1503/cmaj.200647";"Nico";"Sarah";"CMAJ";2;0;0;1;0;;1;0;"liste biblio";1;"PRISMA";;0;1;1;0;1
"Efficacy and safety of convalescent plasma for severe COVID-19 based on evidence in other severe respiratory viral infections: a systematic review and meta-analysis";"10.1503/cmaj.200642";"Nico";"Sarah";"CMAJ";2;0;2;1;0;;1;0;"liste biblio";1;"PRISMA";;0;1;1;0;0
"Efficacy and safety of corticosteroids in COVID-19 based on evidence for COVID-19, other coronavirus infections, influenza, community-acquired pneumonia and acute respiratory distress syndrome: a systematic review and meta-analysis";"10.1503/cmaj.200645";"Nico";"Sarah";"CMAJ";2;0;2;1;0;;1;0;"stratégie de recherche, liste biblio";1;"PRISMA";;0;1;1;0;1
"The duration of chemoprophylaxis against malaria after treatment with artesunate-amodiaquine and artemether-lumefantrine and the effects of pfmdr1 86Y and pfcrt 76T: a meta-analysis of individual patient data";"10.1186/s12916-020-1494-3";"Perrine";"Sarah";"BMC Med";2;0;2;1;1;;0;0;"liste biblio";0;;;0;1;1;1;1
"Risk factors and risk prediction models for colorectal cancer metastasis and recurrence: an umbrella review of systematic reviews and meta-analyses of observational studies";"10.1186/s12916-020-01618-6";"Perrine";"Sarah";"BMC Med";2;0;0;1;0;;0;0;"liste biblio";1;"PRISMA";;0;1;1;1;1
"Drug-resistant enteric fever worldwide, 1990 to 2018: a systematic review and meta-analysis";"10.1186/s12916-019-1443-1";"Perrine";"Sarah";"BMC Med";2;1;1;1;0;;1;0;"liste biblio";1;"PRISMA";;0;1;1;0;1
"Poor cardiovascular health is associated with subclinical atherosclerosis in apparently healthy sub-Saharan African populations: an H3Africa AWI-Gen study";"10.1186/s12916-021-01909-6";"Perrine";"Sarah";"BMC Med";2;0;1;1;0;;0;0;"liste biblio";0;;;0;1;1;1;1
"Platelet activation in adult HIV-infected patients on antiretroviral therapy: a systematic review and meta-analysis";"10.1186/s12916-020-01801-9";"Perrine";"Sarah";"BMC Med";2;1;1;1;0;;1;0;"Search strategy";1;"PRISMA";;0;1;1;1;1
"Engaging patients in de-implementation interventions to reduce low-value clinical care: a systematic review and meta-analysis";"10.1186/s12916-020-01567-0";"Perrine";"Sarah";"BMC Med";2;1;1;1;0;;1;0;;1;"PRISMA";;0;1;1;0;1
"Serological evidence of human infections with highly pathogenic avian influenza A(H5N1) virus: a systematic review and meta-analysis";"10.1186/s12916-020-01836-y";"Perrine";"Sarah";"BMC Med";2;1;1;1;0;;1;0;"Search strategy, liste bibliographique";1;"PRISMA";;0;1;1;1;1
"Factors associated with the prescribing of high-dose opioids in primary care: a systematic review and meta-analysis";"10.1186/s12916-020-01528-7";"Perrine";"Sarah";"BMC Med";2;1;1;1;0;;1;0;"Search strategy, supplementary tables";1;"MOOSE";;0;1;1;1;1
"Neutrophil to lymphocyte ratio and cancer prognosis: an umbrella review of systematic reviews and meta-analyses of observational studies";"10.1186/s12916-020-01817-1";"Perrine";"Sarah";"BMC Med";2;1;1;1;1;;1;0;"Search strategy, appendix, supplementary figures and tables";1;"AMSTAR2";"GRADE";0;1;1;1;1
"Single-cell meta-analysis of SARS-CoV-2 entry genes across tissues and demographics";"10.1038/s41591-020-01227-z";"Perrine";"Nico ";"Nat Med";2;0;1;1;1;;1;0;"Supplementary figures and tables, results";0;;;0;1;1;1;1
"Discovery and validation of a personalized risk predictor for incident tuberculosis in low transmission settings";"10.1038/s41591-020-1076-0";"Perrine";"Nico ";"Nat Med";2;1;0;1;1;;0;0;"liste biblio";0;;;0;1;1;1;1
"Efficacy outcomes in phase 2 and phase 3 randomized controlled trials in rheumatology";"10.1038/s41591-020-0833-4";"Perrine";"Nico ";"Nat Med";2;0;0;0;0;;1;0;"Search strategy, supplementary tables, liste bibliographique";0;;;0;1;1;1;0
"Regular use of proton-pump inhibitors and risk of stroke: a population-based cohort study and meta-analysis of randomized-controlled trials";"10.1186/s12916-021-02180-5";"Perrine";"Nico ";"BMC Med";2;0;2;1;0;;0;0;"Search strategy, supplementary figures and tables";0;;;0;1;1;0;1
"The prevalence of mental illness in refugees and asylum seekers: A systematic review and meta-analysis";"10.1371/journal.pmed.1003337";"Sarah";"Perrine";"PLoS Med";2;1;1;1;0;;1;0;"liste biblio, supplementary figures ";1;"PRISMA";;0;1;1;1;1
"Treatment effects in randomised trials using routinely collected data for outcome assessment versus traditional trials: meta-research study";"10.1136/bmj.n450";"Sarah";"Perrine";"BMJ";2;0;2;1;0;;0;0;"liste biblio, supplementary figures ";0;;;0;1;1;0;1
"Comparison of Cardiovascular Events Among Users of Different Classes of Antihypertension Medications: A Systematic Review and Network Meta-analysis";"10.1001/jamanetworkopen.2019.21618";"Sarah";"Perrine";"JAMA Netw Open";2;0;0;1;0;;0;0;"liste biblio, supplementary elements ";1;"PRISMA";;0;1;1;0;1
"Is transcranial direct current stimulation, alone or in combination with antidepressant medications or psychotherapies, effective in treating major depressive disorder? A systematic review and meta-analysis";"10.1186/s12916-021-02181-4";"Sarah";"Perrine";"BMC Med";2;1;2;1;0;;1;0;"liste biblio, supplementary tables ";1;"PRISMA";;0;1;1;0;1
"Effects of Intensive Blood Pressure Treatment on Orthostatic Hypotension : A Systematic Review and Individual Participant-based Meta-analysis";"10.7326/M20-4298";"Perrine";"Nico";"Ann Intern Med";2;1;2;1;0;;1;0;;0;;;0;1;1;1;1
"Using Electronic Health Record Portals to Improve Patient Engagement: Research Priorities and Best Practices";"10.7326/M19-0876";"Perrine";"Nico";"Ann Intern Med";2;0;0;1;0;;0;0;;1;"PRISMA";;0;1;1;0;1
"Association Between Renin-Angiotensin-Aldosterone System Inhibitors and Clinical Outcomes in Patients With COVID-19: A Systematic Review and Meta-analysis";"10.1001/jamanetworkopen.2021.3594";"Perrine";"Nico";"JAMA Netw Open";2;0;0;1;0;;0;0;"Search strategy";1;"PRISMA";;0;1;1;0;1
"Accuracy of the PHQ-2 Alone and in Combination With the PHQ-9 for Screening to Detect Major Depression: Systematic Review and Meta-analysis";"10.1001/jama.2020.6504";"Perrine";"Nico";"JAMA";2;1;2;1;0;;1;1;"Search strategy";1;"PRISMA-DTA";"PRISMA-IPD";0;1;1;0;1
"Duration of palliative care before death in international routine practice: a systematic review and meta-analysis";"10.1186/s12916-020-01829-x";"Maud";"Francois-Joseph";"BMC Med";2;1;1;1;0;;1;0;;1;"PRISMA";;0;1;1;1;1
"Risk for Nephrogenic Systemic Fibrosis After Exposure to Newer Gadolinium Agents: A Systematic Review";"10.7326/M20-0299";"Maud";"Francois-Joseph";"Ann Intern Med";2;1;2;0;2;0;1;0;;0;;;1;1;1;0;1
"Comparative Efficacy and Acceptability of Psychotherapies for Self-harm and Suicidal Behavior Among Children and Adolescents: A Systematic Review and Network Meta-analysis";"10.1001/jamanetworkopen.2021.6614";"Nico";"Perrine";"JAMA Netw Open";3;1;0;1;1;;1;0;"Stratégie de recherche";1;"PRISMA";;0;1;1;0;1
"Efficacy and Safety of Antibiotics for Treatment of Scrub Typhus: A Network Meta-analysis";"10.1001/jamanetworkopen.2020.14487";"Nico";"Perrine";"JAMA Netw Open";3;0;1;1;0;;0;0;"liste bilbio";1;"PRISMA";;0;1;1;0;1
"The importance of transdiagnostic symptom level assessment to understanding prognosis for depressed adults: analysis of data from six randomised control trials";"10.1186/s12916-021-01971-0";"Perrine";"Sarah";"BMC Med";3;0;2;1;1;;0;0;;0;;;0;1;0;0;1
"Management of Acute Pain From Non-Low Back, Musculoskeletal Injuries : A Systematic Review and Network Meta-analysis of Randomized Trials";"10.7326/M19-3601";"Nico";"Sarah";"Ann Intern Med";3;1;0;1;2;;1;0;"liste biblio";1;"PRISMA";;0;1;1;1;1
"Effectiveness of intrapartum fetal surveillance to improve maternal and neonatal outcomes: a systematic review and network meta-analysis";"10.1503/cmaj.202538";"Nico";"Sarah";"CMAJ";3;1;2;1;0;;1;0;"liste biblio";1;"PRISMA";;0;1;1;0;1
"Mapping geographical inequalities in childhood diarrhoeal morbidity and mortality in low-income and middle-income countries, 2000-17: analysis for the Global Burden of Disease Study 2017";"10.1016/S0140-6736(20)30114-8";"Nico";"Perrine";"Lancet";4;0;1;1;1;;0;0;;1;"GATHER";;0;1;1;0;1
"Health and economic benefits of achieving hepatitis C virus elimination in Pakistan: A modelling study and economic analysis";"10.1371/journal.pmed.1003818";"Sarah";"Nico";"PLoS Med";4;0;1;1;0;;0;0;"Liste biblio";1;"CHEERS";;0;1;1;1;1
"Persistence and baseline determinants of seropositivity and reinfection rates in health care workers up to 12.5 months after COVID-19";"10.1186/s12916-021-02032-2";"Perrine";"Nico";"BMC Med";4;0;2;1;0;;0;0;;0;;;0;1;1;1;1
"Trends in the Burden of Chronic Liver Disease Among Hospitalized US Adults";"10.1001/jamanetworkopen.2020.1997";"Nico";"Perrine";"JAMA Netw Open";4;0;0;1;0;;0;0;;1;"STROBE";;0;1;1;0;0
"Ethnic and Racial Variation in Intracerebral Hemorrhage Risk Factors and Risk Factor Burden";"10.1001/jamanetworkopen.2021.21921";"Nico";"Perrine";"JAMA Netw Open";4;0;0;1;0;;0;0;;1;"STROBE";;0;1;1;0;1
"Assessment of Posttraumatic Stress Disorder and Educational Achievement in Sweden";"10.1001/jamanetworkopen.2020.28477";"Nico";"Perrine";"JAMA Netw Open";4;0;0;1;0;;0;0;;1;"STROBE";;0;1;1;0;0
"Exposure to Common Geographic COVID-19 Prevalence Maps and Public Knowledge, Risk Perceptions, and Behavioral Intentions";"10.1001/jamanetworkopen.2020.33538";"Nico";"Perrine";"JAMA Netw Open";4;0;0;1;0;;0;0;;1;"AAPOR";;0;1;1;0;1
"Performance of a Machine Learning Algorithm Using Electronic Health Record Data to Identify and Estimate Survival in a Longitudinal Cohort of Patients With Lung Cancer";"10.1001/jamanetworkopen.2021.14723";"Nico";"Perrine";"JAMA Netw Open";4;0;0;1;0;;0;0;;1;"STROBE";;0;1;1;0;1
"Association of Preexisting Interstitial Lung Abnormalities With Immune Checkpoint Inhibitor-Induced Interstitial Lung Disease Among Patients With Nonlung Cancers";"10.1001/jamanetworkopen.2020.22906";"Nico";"Perrine";"JAMA Netw Open";4;0;0;1;0;;0;0;;1;"STROBE";;0;1;1;0;1
"Comparative Effectiveness of Machine Learning Approaches for Predicting Gastrointestinal Bleeds in Patients Receiving Antithrombotic Treatment";"10.1001/jamanetworkopen.2021.10703";"Nico";"Perrine";"JAMA Netw Open";4;0;0;1;0;;0;0;;1;"STROBE";;0;1;1;0;1
"Indication-Specific Opioid Prescribing for US Patients With Medicaid or Private Insurance, 2017";"10.1001/jamanetworkopen.2020.4514";"Nico";"Perrine";"JAMA Netw Open";4;0;0;1;0;;0;0;;1;"STROBE";"RECORD";0;1;1;0;1
"Combination anti-HIV-1 antibody therapy is associated with increased virus-specific T cell immunity";"10.1038/s41591-019-0747-1";"Perrine";"Sarah";"Nat Med";4;1;2;1;0;;0;0;;0;;;0;1;1;1;1
"Epidemiology, clinical course, and outcomes of critically ill adults with COVID-19 in New York City: a prospective cohort study";"10.1016/S0140-6736(20)31189-2";"Nico";"Perrine";"Lancet";4;0;0;1;0;;0;0;;0;;;1;1;1;0;1
"Postgraduate training abroad and migration intentions of medical doctors and students in Gaza: a cross-sectional survey";"10.1016/S0140-6736(21)01492-6";"Nico";"Perrine";"Lancet";4;0;0;1;0;;0;0;;0;;;0;1;1;0;1
"Investigation of three clusters of COVID-19 in Singapore: implications for surveillance and response measures";"10.1016/S0140-6736(20)30528-6";"Nico";"Perrine";"Lancet";4;0;0;1;0;;0;0;;0;;;0;1;1;0;1
"The effects of the national HPV vaccination programme in England, UK, on cervical cancer and grade 3 cervical intraepithelial neoplasia incidence: a register-based observational study";"10.1016/S0140-6736(21)02178-4";"Nico";"Perrine";"Lancet";4;0;2;0;0;;0;0;;0;;;0;1;1;0;1
"Epidemiological and clinical characteristics of 99 cases of 2019 novel coronavirus pneumonia in Wuhan, China: a descriptive study";"10.1016/S0140-6736(20)30211-7";"Nico";"Perrine";"Lancet";4;0;0;1;0;;0;0;;0;;;0;1;1;0;1
"Long-term risk of a major cardiovascular event by apoB, apoA-1, and the apoB/apoA-1 ratio-Experience from the Swedish AMORIS cohort: A cohort study";"10.1371/journal.pmed.1003853";"Sarah";"Nico";"PLoS Med";4;1;0;1;0;;0;0;"Liste biblio ";1;"STROBE";;0;1;1;1;1
"Association between industry payments and prescriptions of long-acting insulin: An observational study with propensity score matching";"10.1371/journal.pmed.1003645";"Sarah";"Nico";"PLoS Med";4;0;1;1;0;;0;1;"Liste biblio";1;"STROBE";;0;1;1;1;1
"Probability of sepsis after infection consultations in primary care in the United Kingdom in 2002-2017: Population-based cohort study and decision analytic model";"10.1371/journal.pmed.1003202";"Sarah";"Nico";"PLoS Med";4;0;2;1;0;;1;0;"Liste biblio";1;"STROBE";;0;1;1;1;1
"Body muscle gain and markers of cardiovascular disease susceptibility in young adulthood: A cohort study";"10.1371/journal.pmed.1003751";"Sarah";"Nico";"PLoS Med";4;0;2;1;0;;1;0;"Liste biblio";1;"STROBE";;0;1;1;1;1
"The relationship between psychosocial circumstances and injuries in adolescents: An analysis of 87,269 individuals from 26 countries using the Global School-based Student Health Survey";"10.1371/journal.pmed.1003722";"Sarah";"Nico";"PLoS Med";4;0;1;1;0;;0;0;"Liste biblio";1;"STROBE";;0;1;1;1;1
"Estimating progress towards meeting women's contraceptive needs in 185 countries: A Bayesian hierarchical modelling study";"10.1371/journal.pmed.1003026";"Sarah";"Perrine";"PLoS Med";4;0;1;1;1;;0;0;"Liste biblio";1;"GATHER";;0;1;1;1;1
"Clinicogenomic factors of biotherapy immunogenicity in autoimmune disease: A prospective multicohort study of the ABIRISK consortium";"10.1371/journal.pmed.1003348";"Sarah";"Perrine";"PLoS Med";4;0;2;1;0;;0;1;"Liste biblio";1;"STROBE";;0;1;1;1;1
"Association Between Age at Diabetes Onset and Subsequent Risk of Dementia";"10.1001/jama.2021.4001";"Sarah";"Perrine";"JAMA";4;0;0;1;0;;0;0;;0;;;0;1;1;0;1
"Association of Real-time Continuous Glucose Monitoring With Glycemic Control and Acute Metabolic Events Among Patients With Insulin-Treated Diabetes";"10.1001/jama.2021.6530";"Sarah";"Perrine";"JAMA";4;0;0;1;0;;0;0;;0;;;0;1;1;0;1
"Correlation Between N95 Extended Use and Reuse and Fit Failure in an Emergency Department";"10.1001/jama.2020.9843";"Sarah";"Perrine";"JAMA";4;0;0;1;0;;0;0;;0;;;0;1;1;0;0
"Acute Allergic Reactions to mRNA COVID-19 Vaccines";"10.1001/jama.2021.3976";"Sarah";"Perrine";"JAMA";4;0;0;1;0;;0;0;;0;;;0;1;1;0;1
"Physician Practice Interruptions in the Treatment of Medicare Patients During the COVID-19 Pandemic";"10.1001/jama.2021.16324";"Sarah";"Perrine";"JAMA";4;0;0;1;0;;0;0;;0;;;0;1;1;0;1
"Association Between Hospital Voluntary Participation, Mandatory Participation, or Nonparticipation in Bundled Payments and Medicare Episodic Spending for Hip and Knee Replacements";"10.1001/jama.2021.10046";"Sarah";"Perrine";"JAMA";4;0;0;1;0;;0;0;;0;;;0;1;1;0;1
"Ketoacidosis in Children and Adolescents With Newly Diagnosed Type 1 Diabetes During the COVID-19 Pandemic in Germany";"10.1001/jama.2020.13445";"Sarah";"Perrine";"JAMA";4;0;0;1;0;;0;0;;0;;;0;1;1;0;1
"Prevalence of SARS-CoV-2 in Karnataka, India";"10.1001/jama.2021.0332";"Sarah";"Perrine";"JAMA";4;0;0;1;0;;0;0;;0;;;0;1;1;0;1
"Rates of Prenatal Cannabis Use Among Pregnant Women Before and During the COVID-19 Pandemic";"10.1001/jama.2021.16328";"Sarah";"Perrine";"JAMA";4;0;0;1;0;;0;0;;0;;;0;1;1;0;1
"Peripheral Neuropathy and All-Cause and Cardiovascular Mortality in U.S. Adults : A Prospective Cohort Study";"10.7326/M20-1340";"Nico";"Sarah";"Ann Intern Med";4;0;1;1;0;;0;0;;0;;;0;1;1;0;1
"Prevalence of Symptoms More Than Seven Months After Diagnosis of Symptomatic COVID-19 in an Outpatient Setting";"10.7326/M21-0878";"Nico";"Sarah";"Ann Intern Med";4;0;2;1;2;;2;0;;0;;;0;1;1;0;1
"SARS-CoV-2 Vaccine Effectiveness in a High-Risk National Population in a Real-World Setting";"10.7326/M21-1577";"Nico";"Sarah";"Ann Intern Med";4;0;2;1;2;;0;0;;0;;;0;1;1;0;1
"Safety and Efficacy of Checkpoint Inhibition in Patients With Melanoma and Preexisting Autoimmune Disease : A Cohort Study";"10.7326/M20-3419";"Nico";"Sarah";"Ann Intern Med";4;0;2;0;0;;2;0;;0;;;0;1;1;1;1
"Opioid agonist treatment and risk of mortality during opioid overdose public health emergency: population based retrospective cohort study";"10.1136/bmj.m772";"Sarah";"Perrine";"BMJ";4;0;0;1;2;;2;0;"liste biblio";0;;;0;1;1;0;1
"Risks of covid-19 hospital admission and death for people with learning disability: population based cohort study using the OpenSAFELY platform";"10.1136/bmj.n1592";"Sarah";"Perrine";"BMJ";4;0;1;1;1;;1;0;"liste biblio";0;;;0;1;1;0;1
"Characterization and clinical course of 1000 patients with coronavirus disease 2019 in New York: retrospective case series";"10.1136/bmj.m1996";"Sarah";"Perrine";"BMJ";4;0;2;1;2;;0;0;"liste biblio";0;;;0;1;1;0;1
"GP consultation rates for sequelae after acute covid-19 in patients managed in the community or hospital in the UK: population based study";"10.1136/bmj-2021-065834";"Sarah";"Perrine";"BMJ";4;0;2;1;2;;1;1;"liste biblio";0;;;0;1;1;1;1
"Rates of rebleeding, thrombosis and mortality associated with resumption of anticoagulant therapy after anticoagulant-related bleeding";"10.1503/cmaj.201433";"Sarah";"Perrine";"CMAJ";4;0;2;1;2;;0;0;"liste biblio";1;"STROBE";;0;1;1;0;1
"Use of sodium-glucose cotransporter-2 inhibitors and risk of acute kidney injury in older adults with diabetes: a population-based cohort study";"10.1503/cmaj.191283";"Sarah";"Perrine";"CMAJ";4;0;2;1;0;;0;0;"liste biblio";1;"RECORD-PE";;0;1;1;0;1
"Diagnosis-wide analysis of COVID-19 complications: an exposure-crossover study";"10.1503/cmaj.201686";"Sarah";"Perrine";"CMAJ";4;0;2;1;0;;0;0;"liste biblio";0;;;0;1;1;0;1
"Long-distance travel for birthing among Indigenous and non-Indigenous pregnant people in Canada";"10.1503/cmaj.201903";"Sarah";"Perrine";"CMAJ";4;0;2;1;0;;0;0;"liste biblio";0;;;0;1;1;0;1
"Falciparum but not vivax malaria increases the risk of hypertensive disorders of pregnancy in women followed prospectively from the first trimester";"10.1186/s12916-021-01960-3";"Perrine";"Nico";"BMC Med";4;0;2;1;0;;0;0;;0;;;0;1;1;1;1
"Comparative performance and external validation of the multivariable PREDICT Prostate tool for non-metastatic prostate cancer: a study in 69,206 men from Prostate Cancer data Base Sweden (PCBaSe)";"10.1186/s12916-020-01606-w";"Perrine";"Nico";"BMC Med";4;0;2;1;0;;0;0;;0;;;0;1;1;0;1
"Mental health and smoking cessation-a population survey in England";"10.1186/s12916-020-01617-7";"Perrine";"Nico";"BMC Med";4;0;2;1;0;;0;0;;0;;;0;1;1;1;1
"Patient and health provider costs of integrated HIV, diabetes and hypertension ambulatory health services in low-income settings - an empirical socio-economic cohort study in Tanzania and Uganda";"10.1186/s12916-021-02094-2";"Perrine";"Nico";"BMC Med";4;0;2;1;0;;0;0;;1;"CHEERS";;0;1;1;1;1
"Maternal cannabis use in pregnancy and child neurodevelopmental outcomes";"10.1038/s41591-020-1002-5";"Perrine";"Nico";"Nat Med";4;0;0;0;0;;2;0;;0;;;0;1;1;1;1
"Fetal cranial growth trajectories are associated with growth and neurodevelopment at 2 years of age: INTERBIO-21st Fetal Study";"10.1038/s41591-021-01280-2";"Perrine";"Nico";"Nat Med";4;0;2;1;0;;0;0;;0;;;0;1;1;1;1
"Prognostic value of polygenic risk scores for adults with psychosis";"10.1038/s41591-021-01475-7";"Perrine";"Nico";"Nat Med";4;0;1;1;1;;0;0;;0;;;0;1;1;1;1
"Reasons for cannabis use during pregnancy and lactation: a qualitative study";"10.1503/cmaj.211236";"Perrine";"Nico";"CMAJ";4;0;0;1;0;;0;0;;0;;;0;1;1;0;1
"Impact of a screen, triage and treat program for identifying chronic disease risk in Indigenous children";"10.1503/cmaj.210507";"Perrine";"Nico";"CMAJ";4;0;2;1;0;;0;0;;0;;;0;1;1;0;1
"Observational study ";"10.1503/cmaj.202601";"Perrine";"Nico";"CMAJ";4;0;2;1;0;;0;0;;0;;;0;1;1;0;1
"Association between Chinese or South Asian ethnicity and end-of-life care in Ontario, Canada";"10.1503/cmaj.190655";"Perrine";"Nico";"CMAJ";4;0;0;1;0;;0;0;;0;;;0;1;1;0;1
"Recent cannabis use and myocardial infarction in young adults: a cross-sectional study";"10.1503/cmaj.202392";"Perrine";"Nico";"CMAJ";4;0;1;1;0;;0;0;;0;;;0;1;1;0;1
"MRI-Targeted, Systematic, and Combined Biopsy for Prostate Cancer Diagnosis";"10.1056/NEJMoa1910038";"Perrine";"Nico";"N Engl J Med";4;0;2;1;0;;1;0;;0;;;0;0;1;0;1
"Abortion Safety and Use with Normally Prescribed Mifepristone in Canada";"10.1056/NEJMsa2109779";"Perrine";"Nico";"N Engl J Med";4;0;0;1;1;;0;0;;0;;;0;0;1;0;1
"Prevention and Attenuation of Covid-19 with the BNT162b2 and mRNA-1273 Vaccines";"10.1056/NEJMoa2107058";"Perrine";"Nico";"N Engl J Med";4;0;0;1;0;;0;0;;0;;;0;0;1;0;1
"Trends in U.S. Burden of Clostridioides difficile Infection and Outcomes";"10.1056/NEJMoa1910215";"Perrine";"Nico";"N Engl J Med";4;0;0;1;0;;0;0;;0;;;0;0;1;0;1
"Vaccination of Infants with Meningococcal Group B Vaccine (4CMenB) in England";"10.1056/NEJMoa1901229";"Perrine";"Nico";"N Engl J Med";4;0;0;1;0;;0;0;;0;;;0;0;1;0;1
"Acquired Resistance to KRAS(G12C) Inhibition in Cancer";"10.1056/NEJMoa2105281";"Perrine";"Nico";"N Engl J Med";4;0;0;1;0;;0;0;;0;;;0;0;1;0;1
"HPV Vaccination and the Risk of Invasive Cervical Cancer";"10.1056/NEJMoa1917338";"Perrine";"Nico";"N Engl J Med";4;0;2;1;2;;0;0;;0;;;0;1;1;0;1
"COVID-19 pandemic and admission rates for and management of acute coronary syndromes in England";"10.1016/S0140-6736(20)31356-8";"Maud";"Francois-Joseph";"Lancet";4;0;0;1;0;1;0;0;;0;;;0;1;1;0;1
"COVID-19 in Amazonas, Brazil, was driven by the persistence of endemic lineages and P.1 emergence";"10.1038/s41591-021-01378-7";"Maud";"Francois-Joseph";"Nat Med";4;0;1;1;1;1;0;0;;0;;;0;1;1;1;1
"Regional differences in short stature in England between 2006 and 2019: A cross-sectional analysis from the National Child Measurement Programme";"10.1371/journal.pmed.1003760";"Maud";"Francois-Joseph";"PLoS Med";4;0;0;1;0;;0;0;;1;"STROBE";;0;1;1;1;1
"Excess deaths associated with covid-19 pandemic in 2020: age and sex disaggregated time series analysis in 29 high income countries";"10.1136/bmj.n1137";"Maud";"Francois-Joseph";"BMJ";4;0;2;1;0;1;0;0;;0;;;0;1;1;1;1
"Association of plasma biomarkers of fruit and vegetable intake with incident type 2 diabetes: EPIC-InterAct case-cohort study in eight European countries";"10.1136/bmj.m2194";"Maud";"Francois-Joseph";"BMJ";4;0;2;1;0;;0;0;;0;;;0;1;1;1;1
"Testing for Primary Aldosteronism and Mineralocorticoid Receptor Antagonist Use Among U.S. Veterans: A Retrospective Cohort Study";"10.7326/M20-4873";"Maud";"Francois-Joseph";"Ann Intern Med";4;0;2;0;2;;2;0;;0;;;0;1;1;1;1
"Reporting of Postprotocol Therapies and Attrition in Multiple Myeloma Randomized Clinical Trials: A Systematic Review";"10.1001/jamanetworkopen.2021.8084";"Nico";"Perrine";"JAMA Netw Open";5;0;0;1;0;;0;0;"Search strategy";1;"PRISMA";;0;1;1;0;1
"Optimal Intervals of Ultrasonography Screening for Early Diagnosis of Hepatocellular Carcinoma in Taiwan";"10.1001/jamanetworkopen.2021.14680";"Nico";"Perrine";"JAMA Netw Open";5;0;0;1;0;;0;0;;1;"STROBE";;0;1;1;0;1
"Quality of primary health care in China: challenges and recommendations";"10.1016/S0140-6736(20)30122-7";"Nico";"Perrine";"Lancet";5;0;0;1;0;;0;0;"Search strategy";0;;;0;1;1;0;1
"Management of Dyslipidemia for Cardiovascular Disease Risk Reduction: Synopsis of the 2020 Updated U.S. Department of Veterans Affairs and U.S. Department of Defense Clinical Practice Guideline";"10.7326/M20-4648";"Nico";"Sarah";"Ann Intern Med";5;0;0;1;0;;0;0;;1;"GRADE";;0;1;1;0;0
"Uses and Limitations of the Restricted Mean Survival Time: Illustrative Examples From Cardiovascular Outcomes and Mortality Trials in Type 2 Diabetes";"10.7326/M19-3286";"Nico";"Sarah";"Ann Intern Med";5;0;0;0;0;;0;0;;0;;;0;1;1;0;1
"Health System Costs of Treating Latent Tuberculosis Infection With Four Months of Rifampin Versus Nine Months of Isoniazid in Different Settings";"10.7326/M19-3741";"Nico";"Sarah";"Ann Intern Med";5;0;2;0;0;;0;0;;0;;;0;1;1;0;1
"Algorithm based smartphone apps to assess risk of skin cancer in adults: systematic review of diagnostic accuracy studies";"10.1136/bmj.m127";"Sarah";"Perrine";"BMJ";5;1;0;1;0;;0;0;"Search strategy, liste bibliographique";1;"PRISMA ";;0;1;1;1;1
"Advances in the diagnosis and management of IgG4 related disease";"10.1136/bmj.m1067";"Sarah";"Perrine";"BMJ";5;0;0;0;0;;0;0;;0;;;0;1;1;0;1
"Epilepsy management in pregnant HIV+ women in sub-Saharan Africa, clinical aspects to consider: a scoping review";"10.1186/s12916-020-01799-0";"Perrine";"Nico";"BMC Med";5;0;1;1;0;;0;0;"Search strategy, Preferred Reporting Items for Systematic reviews and Meta-Analyses extension for
Scoping Reviews (PRISMA-ScR) Checklist ";1;"PRISMA-ScR";;0;1;1;0;1
"A stochastic agent-based model of the SARS-CoV-2 epidemic in France";"10.1038/s41591-020-1001-6";"Perrine";"Nico";"Nat Med";5;0;1;1;1;;0;0;;0;;;0;1;1;1;0
"Deep learning of HIV field-based rapid tests";"10.1038/s41591-021-01384-9";"Perrine";"Nico";"Nat Med";5;0;1;1;1;;0;0;"Reporting summary";0;;;0;1;1;1;1
"Detection of SARS-CoV-2 in Different Types of Clinical Specimens";"10.1001/jama.2020.3786";"Sarah";"Perrine";"JAMA";5;0;0;1;0;;0;0;;0;;;0;1;1;0;1
"Use of electronic medical records in development and validation of risk prediction models of hospital readmission: systematic review";"10.1136/bmj.m958";"Sarah";"Perrine";"BMJ";5;0;0;1;0;;0;0;;0;;;0;1;1;1;1
"Development of a predictive model for integrated medical and long-term care resource consumption based on health behaviour: application of healthcare big data of patients with circulatory diseases";"10.1186/s12916-020-01874-6";"Perrine";"Nico";"BMC Med";5;0;2;1;0;;0;0;;1;"TORIPOD";;0;1;1;0;1
"Dexamethasone modulates immature neutrophils and interferon programming in severe COVID-19";"10.1038/s41591-021-01576-3";"Perrine";"Nico";"Nat Med";5;0;2;1;1;;0;0;;0;;;0;1;1;1;1
"Elevated serum interleukin-8 is associated with enhanced intratumor neutrophils and reduced clinical benefit of immune-checkpoint inhibitors";"10.1038/s41591-020-0856-x";"Perrine";"Nico";"Nat Med";5;0;2;1;0;;0;0;;0;;;0;1;1;1;1
"A phase 1/2 trial of an immune-modulatory vaccine against IDO/PD-L1 in combination with nivolumab in metastatic melanoma";"10.1038/s41591-021-01544-x";"Perrine";"Nico";"Nat Med";5;1;2;1;0;;0;0;;0;;;0;1;1;1;1
"Neutralizing antibody levels are highly predictive of immune protection from symptomatic SARS-CoV-2 infection";"10.1038/s41591-021-01377-8";"Perrine";"Nico";"Nat Med";5;0;2;1;1;;0;0;;0;;;0;1;1;1;1
"BIVV001 Fusion Protein as Factor VIII Replacement Therapy for Hemophilia A";"10.1056/NEJMoa2002699";"Perrine";"Nico";"N Engl J Med";5;1;0;1;0;;1;1;;0;;;0;0;1;0;1
"Vemurafenib plus Rituximab in Refractory or Relapsed Hairy-Cell Leukemia";"10.1056/NEJMoa2031298";"Perrine";"Nico";"N Engl J Med";5;1;0;1;0;;1;1;;0;;;0;0;1;0;1
"SOD1 Suppression with Adeno-Associated Virus and MicroRNA in Familial ALS";"10.1056/NEJMoa2005056";"Perrine";"Nico";"N Engl J Med";5;0;2;1;0;;1;0;;0;;;0;0;1;0;1
"Homocysteine, B vitamins, and cardiovascular disease: a Mendelian randomization study";"10.1186/s12916-021-01977-8";"Perrine";"Nico ";"BMC Med";5;0;1;1;0;;0;0;;0;;;0;1;1;1;1
"Evaluation of seasonal malaria chemoprevention in two areas of intense seasonal malaria transmission: Secondary analysis of a household-randomised, placebo-controlled trial in HoundÃ© District, Burkina Faso and Bougouni District, Mali";"10.1371/journal.pmed.1003214";"Sarah";"Nico";"PLoS Med";5;1;2;1;0;0;1;1;;1;"STROBE";;0;1;1;1;1
"Genomic characterisation and epidemiology of 2019 novel coronavirus: implications for virus origins and receptor binding";"10.1016/S0140-6736(20)30251-8";"Maud";"Francois-Joseph";"Lancet";5;0;1;1;0;1;0;0;;0;;;0;1;1;0;1
"The cost-effectiveness of controlling dengue in Indonesia using wMel Wolbachia released at scale: a modelling study";"10.1186/s12916-020-01638-2";"Maud";"Francois-Joseph";"BMC Med";5;0;1;1;1;0;0;0;;1;"CHEERS";;0;1;1;1;1
"Estimated impact of tafenoquine for Plasmodium vivax control and elimination in Brazil: A modelling study";"10.1371/journal.pmed.1003535";"Maud";"Francois-Joseph";"PLoS Med";5;0;2;1;1;;0;0;"1(model)";0;;;0;1;1;1;1
"Estimation of COVID-19-induced depletion of hospital resources in Ontario, Canada";"10.1503/cmaj.200715";"Maud";"Francois-Joseph";"CMAJ";5;0;2;1;0;1;0;0;;0;;;0;1;1;0;1
"Awareness, Attitudes, and Actions Related to COVID-19 Among Adults With Chronic Conditions at the Onset of the U.S. Outbreak: A Cross-sectional Survey";"10.7326/M20-1239";"Maud";"Francois-Joseph";"Ann Intern Med";5;0;2;1;2;1;2;0;;0;;;0;1;1;0;1
"Accuracy of UK Rapid Test Consortium (UK-RTC) ""AbC-19 Rapid Test"" for detection of previous SARS-CoV-2 infection in key workers: test accuracy study";"10.1136/bmj.m4262";"Maud";"Francois-Joseph";"BMJ";5;0;2;1;0;1;0;0;;0;;;0;1;1;1;1
"Cost-Effectiveness of Transitional Care Services After Hospitalization With Heart Failure";"10.7326/M19-1980";"Maud";"Francois-Joseph";"Ann Intern Med";5;0;1;0;1;;0;0;;1;"CHEERS";;0;1;1;0;1
"What Will It Take to End HIV in the United States? : A Comprehensive, Local-Level Modeling Study";"10.7326/M21-1501";"Maud";"Francois-Joseph";"Ann Intern Med";5;0;2;0;1;;2;0;;0;;;0;1;1;0;1
"Actigraphy in brain-injured patients – A valid measurement for assessing circadian rhythms?";"10.1186/s12916-020-01569-y ";"Maud";"Francois-Joseph";"BMC Med";5;0;2;1;0;;0;0;;0;;;0;1;1;0;1
"Multiple myeloma";"10.1016/S0140-6736(21)00135-5";"Nico";"Perrine";"Lancet";6;0;0;0;0;;0;0;"Search strategy";0;;;0;1;1;0;0
"COVID-19 and Italy: what next?";"10.1016/S0140-6736(20)30627-9";"Nico";"Perrine";"Lancet";6;0;0;1;0;;0;0;;0;;;0;1;1;0;0
"COVID-19 and global equity for health: The good, the bad, and the wicked";"10.1371/journal.pmed.1003797";"Sarah";"Nico";"PLoS Med";6;0;0;1;0;;0;0;;0;;;0;0;1;1;1
"Tenofovir Alafenamide for HIV Preexposure Prophylaxis: What Can We DISCOVER About Its True Value?";"10.7326/M19-3337";"Nico";"Sarah";"Ann Intern Med";6;0;0;1;0;;0;0;;0;;;0;1;1;0;0
"Low-dose chest CT had 95% sensitivity and 91% specificity for diagnosing COVID-19 in patients with clinical symptoms";"10.7326/ACPJ202012150-068";"Nico";"Sarah";"Ann Intern Med";6;0;0;0;0;;0;0;;0;;;0;0;1;0;0
"Biomedical Research in Times of Emergency: Lessons From History";"10.7326/M20-2076";"Nico";"Sarah";"Ann Intern Med";6;0;0;1;0;;0;0;;0;;;0;1;1;0;0
"Care of the Patient Using Cannabis";"10.7326/AITC202011030";"Nico";"Sarah";"Ann Intern Med";6;0;0;0;0;;0;0;;0;;;0;0;1;1;1
"Delirium and long term cognition in critically ill patients";"10.1136/bmj.n1007";"Sarah";"Perrine";"BMJ";6;0;0;0;0;;0;0;;0;;;0;0;0;0;0
"Assessing the process and outcome of the development of practice guidelines and recommendations: PANELVIEW instrument development";"10.1503/cmaj.200193";"Sarah";"Perrine";"CMAJ";6;0;0;1;0;;0;0;"liste biblio";0;;;0;1;1;0;1
"Patient and public involvement in research: from tokenistic box ticking to valued team members";"10.1186/s12916-020-01544-7";"Perrine";"Nico";"BMC Med";6;0;0;1;0;;0;0;;0;;;0;1;1;0;1
"Reproductive issues in carriers of germline pathogenic variants in the BRCA1/2 genes: an expert meeting";"10.1186/s12916-021-02081-7";"Perrine";"Nico";"BMC Med";6;0;0;1;0;;0;0;;0;;;0;1;1;1;1
"Controlled human malaria infection-Maker and breaker of dogma";"10.1371/journal.pmed.1003591";"Sarah";"Perrine";"PLoS Med";6;0;0;1;0;;0;0;;0;;;0;0;1;1;1
"Strengthening the links between planning and health in England";"10.1136/bmj.m795";"Sarah";"Perrine";"BMJ";6;0;0;1;0;;0;0;"liste biblio";0;;;0;1;1;0;0
"Medical cannabis or cannabinoids for chronic pain: a clinical practice guideline";"10.1136/bmj.n2040";"Sarah";"Perrine";"BMJ";6;0;0;0;0;;0;0;"liste biblio";1;"GRADE";;0;0;1;0;1
"Circulating tumor DNA-guided treatment with pertuzumab plus trastuzumab for HER2-amplified metastatic colorectal cancer: a phase 2 trial";"10.1038/s41591-021-01553-w";"Perrine";"Nico";"Nat Med";6;1;2;1;0;;1;1;;0;;;0;1;1;1;1
